[
  {
    "id": 1,
    "data": "11.02.2023",
    "title": "Защита природы: Роль каждого человека",
    "text": "В этой статье мы обсудим важность охраны природы и как каждый человек может внести свой вклад в этот процесс. Природа предоставляет нам ресурсы, красоту и экосистемы, необходимые для нашего выживания. Мы можем сократить свой след на окружающей среде, уменьшив потребление энергии и воды, участвуя в мероприятиях по заботе о природе и поддерживая экологические организации."
  },
  {
    "id": 2,
    "data": "11.02.2023",
    "title": "Удивительные явления природы: Как они работают",
    "text": "Природа полна удивительных явлений, таких как радуги, магнитные бури и затмения. В этой статье мы исследуем, как работают эти природные явления и почему они возникают. От обыденных атмосферных процессов до более загадочных явлений, природа всегда способна на удивительное."
  },
  {
    "id": 3,
    "data": "11.02.2023",
    "title": "Биоразнообразие: Почему оно важно для жизни на Земле",
    "text": "Биоразнообразие является ключевым элементом здоровой планеты. В этой статье мы рассмотрим, почему разнообразие живых организмов так важно для экосистем и человечества. Мы также обсудим угрозы, которые сталкиваются с разнообразием видов, и как можно способствовать его сохранению."
  },
  {
    "id": 4,
    "data": "11.02.2023",
    "title": "Исцеляющая сила природы: Польза природных лекарственных растений",
    "text": "Многие растения имеют лечебные свойства и используются в традиционной медицине. В этой статье мы рассмотрим несколько природных лекарственных растений, их полезные свойства и способы использования. От чая из мелиссы до алоэ вера, природа предоставляет нам богатый источник целебных ресурсов."
  },
  {
    "id": 5,
    "data": "11.02.2023",
    "title": "Природные катастрофы: Как мы можем быть готовыми к ним",
    "text": "Природные катастрофы, такие как землетрясения, наводнения и ураганы, могут иметь разрушительные последствия. В этой статье мы обсудим, как можно быть готовыми к природным бедствиям, разработав планы эвакуации, снабжения и меры предосторожности."
  },
  {
    "id": 6,
    "data": "11.02.2023",
    "title": "Великие национальные парки мира: Оазисы природы\"",
    "text": "Национальные парки представляют собой уникальные природные ареалы, где сохраняется природная красота и биоразнообразие. В этой статье мы познакомим вас с некоторыми из великих национальных парков мира, их удивительными пейзажами и историческим значением."
  },
  {
    "id": 7,
    "data": "11.02.2023",
    "title": "Природа и здоровье: Польза прогулок на свежем воздухе",
    "text": "Природа может оказать положительное влияние на наше физическое и психическое здоровье. В этой статье мы рассмотрим, как прогулки на свежем воздухе и время, проведенное на природе, могут улучшить наше благополучие, снизить стресс и улучшить настроение."
  },
  {
    "id": 8,
    "data": "11.02.2023",
    "title": "Загадочные места природы: Места с невероятными явлениями",
    "text": "Природа порой создает загадочные и удивительные явления, которые оставляют ученых и исследователей в изумлении. В этой статье мы рассмотрим несколько мест с невероятными природными явлениями, такими как гейзеры, магмовые вулканы и таинственные явления в океане."
  },
  {
    "id": 9,
    "data": "11.02.2023",
    "title": "Природа в искусстве: Вдохновение художников и поэтов",
    "text": "Природа всегда была источником вдохновения для художников и поэтов. В этой статье мы рассмотрим, как природа изображалась и описывалась в искусстве и литературе, и как она вдохновляла творческих людей на протяжении веков."
  },
  {
    "id": 10,
    "data": "12.02.2023",
    "title": "Природа в сказках и мифах",
    "text": "Природа с давних времен служила источником вдохновения для многих сказочных и мифологических рассказов. В сказках разных культур природа часто олицетворяется в виде богов, героев и волшебных созданий. Она становится не только фоном для действия, но и активным участником сюжета.\n\nВ греческой мифологии, Деметра, богиня урожая, связана с природой и временами грустит, приводя к приходу зимы. В азтекских мифах, Центзонтуатль искупает свой гнев, принося дождь и плодородие. В русских сказках, Леший - лесной дух, охранитель природы, оживляет леса и луга.\n\nПрирода также служит символом истинных чувств и человеческих качеств. Цветы могут олицетворять любовь и нежность, деревья - мудрость и стойкость, а реки - поток времени и перемен.\n\nСказки и мифы, в которых природа играет ключевую роль, помогают нам лучше понимать и уважать окружающий мир. Они передают важные уроки о балансе между человеком и природой, и о том, как мы зависим друг от друга."
  }
]